Fullname,"Rental Amount",Rank
"BREAUX, TED",26.94,1
"BESS, CHARLIE",26.94,2
"MILAM, JESSIE",39.91,3
"PETERS, SUE",27.88,4
"VARGAS, CHRISTY",35.90,5
"COX, JUDITH",25.90,6
"EBERT, LEO",29.93,7
"KAHN, ALAN",28.94,8
"JORDAN, TIFFANY",17.96,9
"MAHON, DONALD",11.96,10
