"Average Amount",city,Rank
3.708750,Sasebo,1
4.767778,"San Bernardino",2
5.220769,Athenai,3
3.717273,Myingyan,4
3.805789,Nantou,5
3.347143,Laredo,6
4.596061,Kragujevac,7
3.865000,Hamilton,8
3.903043,Masqat,9
3.990000,Esfahan,10
4.448333,Sagamihara,11
3.704286,"Yamuna Nagar",12
4.878889,Osmaniye,13
4.204286,"Citrus Heights",14
4.208750,Bhopal,15
4.162414,Southend-on-Sea,16
4.704286,Elista,17
4.171818,Kaduna,18
5.240000,Kimberley,19
3.856667,Mardan,20
4.447143,Tangail,21
5.171818,Sal,22
3.990000,Liepaja,23
3.830000,Crdoba,24
3.990000,Shikarpur,25
4.490000,"Citt del Vaticano",26
4.086774,Davao,27
3.490000,"Munger (Monghyr)",28
3.906667,Shimonoseki,29
3.637059,Lungtan,30
4.028462,Kamarhati,31
4.403793,Jhansi,32
4.370952,Alessandria,33
3.740000,Kurashiki,34
4.052500,Toulouse,35
3.434444,Arak,36
4.163913,Nanyang,37
3.754706,Chisinau,38
4.886552,"Vila Velha",39
4.101111,Nador,40
4.750000,Yerevan,41
3.923333,"Pak Kret",42
4.156667,Faaa,43
4.413077,Lipetsk,44
4.730741,Antofagasta,45
4.195882,Moscow,46
4.944545,"Juazeiro do Norte",47
4.519412,Niznekamsk,48
4.668571,Jedda,49
4.847143,Omdurman,50
4.202121,Fontana,51
3.714138,"A Corua (La Corua)",52
3.856667,Nagareyama,53
4.438276,Iwakuni,54
4.580909,Balaiha,55
4.523333,Papeete,56
4.097143,Vaduz,57
4.286296,Kuching,58
4.952963,Mysore,59
3.950000,Jaipur,60
4.204286,Basel,61
3.685652,"Saint Louis",62
4.510000,Lincoln,63
3.050606,Daxian,64
4.717273,Cayenne,65
4.254706,Malm,66
4.535455,Xiangtan,67
4.308182,Shivapuri,68
3.870000,Bchar,69
4.490000,al-Hawiya,70
4.323333,Baybay,71
3.323333,Taguig,72
4.073333,Chiayi,73
3.841852,"Rio Claro",74
3.794878,Changhwa,75
3.381304,Pavlodar,76
3.597143,Araatuba,77
4.570645,"Rae Bareli",78
3.853636,Kamakura,79
4.590000,Ife,80
4.262727,Mahajanga,81
5.028462,Simferopol,82
4.070000,Springs,83
4.293030,Atlixco,84
3.816087,Bradford,85
4.505152,Songkhla,86
4.856667,Sincelejo,87
4.180476,Cheju,88
4.208750,"La Plata",89
3.954286,Meixian,90
3.247143,"Bandar Seri Begawan",91
4.775714,Goinia,92
3.990000,Zalantun,93
3.799524,Bislig,94
4.323333,Pathankot,95
3.915926,"Augusta-Richmond County",96
3.267778,Tete,97
4.270000,al-Ayn,98
3.823333,Kimchon,99
4.281667,Jelets,100
4.031667,Abha,101
4.171818,Ashdod,102
4.731935,Ilorin,103
3.865000,Toulon,104
4.643846,Funafuti,105
4.381304,Ivanovo,106
4.223333,Merlo,107
4.423333,Huixquilucan,108
4.143846,Klerksdorp,109
4.275714,Enshi,110
3.759231,Caracas,111
4.456667,Lancaster,112
3.921034,Cuman,113
4.232424,Duisburg,114
3.056667,Nezahualcyotl,115
4.138148,Pemalang,116
3.779474,Gandhinagar,117
3.942381,"Grand Prairie",118
4.519412,"Shubra al-Khayma",119
4.490000,"Dos Quebradas",120
4.220769,Etawah,121
3.958750,Lima,122
4.198333,"Varanasi (Benares)",123
4.101111,Ktahya,124
4.240000,Boksburg,125
4.204286,Po,126
4.490000,Smolensk,127
3.990000,Jastrzebie-Zdrj,128
3.666471,Liaocheng,129
3.906667,"guas Lindas de Gois",130
4.290000,Mukateve,131
3.418571,Botshabelo,132
3.656667,Torren,133
4.120435,Qalyub,134
3.690000,Pune,135
4.190000,Hubli-Dharwad,136
4.990000,Apeldoorn,137
3.254706,Hohhot,138
4.212222,Touliu,139
4.656667,Clarksville,140
4.083750,Fukuyama,141
3.643846,Dundee,142
4.080909,Kilis,143
4.656667,Molodetno,144
3.882857,Soshanguve,145
4.817586,"Sterling Heights",146
3.754706,Urawa,147
4.707391,Saint-Denis,148
4.682308,Brockton,149
4.230000,Hidalgo,150
3.434444,Laiwu,151
3.990000,Nagaon,152
3.948333,Jakarta,153
4.356667,Yuncheng,154
4.390000,Bern,155
4.070000,Ondo,156
3.667419,Pyongyang,157
3.958750,Greensboro,158
3.275714,Linz,159
3.952963,Ljubertsy,160
3.756667,"Tel Aviv-Jaffa",161
3.590000,"Le Mans",162
4.231379,Kakamigahara,163
4.177500,Tarsus,164
4.132857,Hami,165
4.418571,Lilongwe,166
3.740000,Chandrapur,167
3.990000,Jinchang,168
4.353636,Pingxiang,169
4.605385,Udaipur,170
4.413077,Ipoh,171
4.414242,Batman,172
4.127931,Graz,173
4.418571,"Ocumare del Tuy",174
4.115000,"Allappuzha (Alleppey)",175
4.692703,Skikda,176
3.120435,Matamoros,177
4.990000,"Santa Brbara dOeste",178
4.610690,Kirovo-Tepetsk,179
4.294348,Pereira,180
5.137059,Memphis,181
3.759231,Compton,182
3.337826,Luzinia,183
3.946522,s-Hertogenbosch,184
3.685652,"Shahr-e Kord",185
3.699677,Haldia,186
5.704286,Sumy,187
3.710000,Bayugan,188
4.262727,Oshawa,189
4.101111,Tabora,190
3.740000,Novoterkassk,191
4.337826,Firozabad,192
4.390000,Kisumu,193
4.878889,Hino,194
4.568947,Siegen,195
4.332857,Mannheim,196
3.865000,Changzhou,197
3.827838,Ikerre,198
4.150000,Haiphong,199
5.064074,Ashgabat,200
4.350000,Witten,201
3.990000,Bhusawal,202
4.440000,Gorontalo,203
4.218571,Usak,204
4.490000,"Ciudad del Este",205
4.693704,Blumenau,206
4.048824,Nuuk,207
3.528462,Balurghat,208
5.052500,Bhilwara,209
4.441613,Aden,210
4.460588,Fuyu,211
4.590000,Bellevue,212
3.990000,Taizz,213
3.764194,Sunnyvale,214
3.528462,"Stara Zagora",215
4.163913,"Aparecida de Goinia",216
4.294348,Sambhal,217
3.767778,Kabul,218
3.913077,"Vicente Lpez",219
4.249259,Zanzibar,220
4.740000,Syrakusa,221
4.370952,Jaroslavl,222
4.754706,"Mandi Bahauddin",223
3.490000,Jodhpur,224
4.643846,Ambattur,225
4.180476,Asuncin,226
3.656667,Saarbrcken,227
3.434444,"Phnom Penh",228
3.750000,Anpolis,229
3.777879,Botosani,230
4.259231,Uttarpara-Kotrung,231
3.830000,Zaria,232
3.903043,Idfu,233
4.297692,"Jalib al-Shuyukh",234
3.750000,Buenaventura,235
4.180476,Tanza,236
4.383939,Naju,237
4.513810,Shimoga,238
4.195882,Ciomas,239
4.528462,Iwaki,240
3.607647,Xiangfan,241
4.396250,Qinhuangdao,242
3.448333,"San Miguel de Tucumn",243
4.052500,Lapu-Lapu,244
4.146250,Uijongbu,245
4.685652,Maring,246
4.762727,"Coacalco de Berriozbal",247
3.390000,Tallahassee,248
4.685652,Tianjin,249
3.690000,Oyo,250
3.893226,Halle/Saale,251
3.760833,London,252
4.403793,Miyakonojo,253
3.646250,"Poos de Caldas",254
3.934444,Hagonoy,255
3.756667,Monywa,256
4.098108,Beira,257
4.615000,"Santiago de los Caballeros",258
5.171818,Halisahar,259
3.957742,Datong,260
4.143846,Tuguegarao,261
4.275714,Portoviejo,262
4.231379,Mandaluyong,263
3.950000,Higashiosaka,264
4.610690,Olomouc,265
4.240000,Salzburg,266
4.434444,Lengshuijiang,267
4.265862,"Palghat (Palakkad)",268
4.323333,Salinas,269
4.190000,Kalisz,270
3.823333,Kumbakonam,271
4.940000,Yantai,272
4.504286,Salamanca,273
4.361429,Karnal,274
3.623333,Peoria,275
4.382857,Warren,276
4.521250,Ogbomosho,277
3.413077,Inegl,278
4.377097,Tabriz,279
4.397407,Owo,280
3.632857,Fuzhou,281
3.841852,Ponce,282
3.097143,Korla,283
4.525714,"Benin City",284
5.220769,Otsu,285
4.360370,Effon-Alaiye,286
3.990000,Tambaram,287
3.365000,"Valle de Santiago",288
4.756667,"Kowloon and New Kowloon",289
3.918571,"Valle de la Pascua",290
4.163913,Roanoke,291
4.397407,Sharja,292
5.119032,"Donostia-San Sebastin",293
4.374615,Dayton,294
4.279474,Kolpino,295
4.323333,Patiala,296
3.899091,Ahmadnagar,297
3.913077,Oulu,298
4.390000,Hiroshima,299
4.441613,Parbhani,300
4.418571,Kaliningrad,301
4.403793,Tiefa,302
3.874615,Sanaa,303
4.451538,Callao,304
4.390000,Arlington,305
4.333750,"Sungai Petani",306
4.490000,"Angra dos Reis",307
4.230000,"Kansas City",308
4.764194,Brescia,309
4.890000,Ibirit,310
5.250870,Kursk,311
4.028462,Tabuk,312
3.903043,Ezhou,313
3.990000,Sorocaba,314
4.990000,"Bat Yam",315
4.576207,Miraj,316
4.097143,Trshavn,317
4.406667,Bydgoszcz,318
4.423333,"San Felipe del Progreso",319
3.590000,Tafuna,320
5.308182,Birgunj,321
4.597143,"Baha Blanca",322
3.699677,Cuautla,323
4.150000,Yuzhou,324
4.171818,Braslia,325
3.870000,Kingstown,326
4.336154,Adana,327
3.946522,Ciparay,328
3.990000,Jamalpur,329
3.970000,Aurora,330
4.545556,"Santa F",331
4.240000,Dhaka,332
4.064074,Baku,333
4.523333,Sumqayit,334
3.424783,Sousse,335
3.990000,Rampur,336
4.955517,Onomichi,337
4.097143,Paarl,338
4.256667,Xinxiang,339
3.860968,Hanoi,340
4.642174,Ede,341
4.083750,"Boa Vista",342
4.590000,Mexicali,343
4.101111,Nukualofa,344
4.642174,"San Lorenzo",345
4.865000,Maikop,346
4.756667,Daugavpils,347
4.073333,Hsichuh,348
4.783103,Imus,349
3.207391,Teboksary,350
3.740000,Zeleznogorsk,351
4.337826,Bamenda,352
4.045556,"Pachuca de Soto",353
3.601111,"Santo Andr",354
3.640000,Matsue,355
4.056667,Satna,356
3.451538,Bratislava,357
3.847143,Ranchi,358
4.070000,"Almirante Brown",359
4.431176,Arecibo,360
3.248065,Yaound,361
4.552500,Belm,362
4.955517,Nyeri,363
4.163913,Guadalajara,364
4.511739,Okinawa,365
4.125135,Balikesir,366
4.626364,Adoni,367
4.504286,Najafabad,368
3.550000,Jurez,369
3.726842,Gulbarga,370
4.275714,Cabuyao,371
4.666471,Probolinggo,372
4.618571,Tanauan,373
3.704286,"Vitria de Santo Anto",374
4.615000,Mwene-Ditu,375
3.954286,Kurgan,376
3.605385,Kermanshah,377
3.779474,Shenzhen,378
4.642174,Bhavnagar,379
3.795556,Tychy,380
3.047143,"South Hill",381
3.823333,Manchester,382
3.841852,Namibe,383
3.590000,Huaian,384
3.913077,Tama,385
4.058966,Kamjanets-Podilskyi,386
3.913077,Lubumbashi,387
4.156667,Cavite,388
4.797692,Emeishan,389
4.626364,"Nakhon Sawan",390
3.490000,Izumisano,391
3.990000,"Addis Abeba",392
3.925484,Korolev,393
3.853636,Gijn,394
3.042632,al-Qadarif,395
4.138148,Iwatsuki,396
3.645172,Atinsk,397
4.927500,Bag,398
4.370952,Okara,399
4.454286,Dallas,400
3.399091,Koriyama,401
3.990000,Brest,402
4.761429,Valparai,403
4.656667,Omiya,404
3.427500,Tandil,405
3.833750,"Charlotte Amalie",406
4.175185,Rustenburg,407
3.890000,Jaffna,408
4.555217,"Deba Habe",409
4.411053,"Richmond Hill",410
3.105385,Cianjur,411
4.085238,Hoshiarpur,412
3.609048,"Berhampore (Baharampur)",413
4.230000,Allende,414
4.076957,Amersfoort,415
3.925484,Dadu,416
4.430000,al-Qatif,417
3.590000,"San Felipe de Puerto Plata",418
3.590000,Katihar,419
3.799524,"El Monte",420
4.434444,Pudukkottai,421
3.759231,Laohekou,422
4.643846,Sawhaj,423
3.690000,Shanwei,424
4.028462,"San Juan Bautista Tuxtepec",425
4.693704,"Purnea (Purnia)",426
4.781667,Guaruj,427
3.940000,Syktyvkar,428
5.037619,Tsuyama,429
3.626364,Dzerzinsk,430
4.163913,Sucre,431
5.076957,Newcastle,432
5.350000,Naala-Porto,433
4.767778,Ozamis,434
3.670000,Junan,435
4.823333,Vancouver,436
4.337826,"La Romana",437
4.080909,Kitwe,438
4.212222,Bergamo,439
4.035455,"Dhule (Dhulia)",440
4.025714,Batna,441
3.708750,Tongliao,442
4.490000,"So Leopoldo",443
3.856667,Tartu,444
3.951538,Escobar,445
3.764194,Uluberia,446
3.921034,"Nabereznyje Telny",447
4.679655,Erlangen,448
4.990000,Sirjan,449
3.451538,Surakarta,450
3.899091,"El Fuerte",451
3.365000,"Abu Dhabi",452
4.859565,Maracabo,453
4.596061,Uruapan,454
3.656667,"El Alto",455
4.030000,Ziguinchor,456
4.097143,Rockford,457
3.516316,Tegal,458
4.911053,Qomsheh,459
4.390000,Florencia,460
3.490000,Gingoog,461
4.838485,Usolje-Sibirskoje,462
3.670000,Halifax,463
4.615000,Rancagua,464
4.107647,Zapopan,465
4.555217,Dongying,466
4.817586,Cuauhtmoc,467
4.502821,Bijapur,468
4.440000,"Ourense (Orense)",469
5.021250,Hodeida,470
4.064074,Johannesburg,471
4.723333,"Nam Dinh",472
3.960588,Lhokseumawe,473
3.874615,Emmen,474
4.323333,ostka,475
4.353636,Gatineau,476
4.990000,Stockport,477
4.568947,Ashqelon,478
4.731935,Akron,479
4.626364,Gaziantep,480
3.990000,Mwanza,481
4.783103,Coatzacoalcos,482
4.934444,Denizli,483
4.656667,Yinchuan,484
3.990000,Shaoguan,485
4.374615,Acua,486
4.605385,Pjatigorsk,487
4.353636,"La Paz",488
4.751905,Okayama,489
4.906667,Sogamoso,490
4.619630,"Mit Ghamr",491
4.115000,Kanchrapara,492
4.903043,Sultanbeyli,493
4.538387,Robamba,494
4.643846,Baiyin,495
4.228095,Rizhao,496
4.632857,York,497
3.619630,Salala,498
4.123333,Brindisi,499
4.132857,Madiun,500
4.275714,Lublin,501
4.078235,"Siliguri (Shiliguri)",502
3.615000,Ueda,503
4.775714,Joliet,504
4.656667,Talavera,505
4.361429,Pontianak,506
3.830000,Eskisehir,507
5.110000,Vijayawada,508
5.040000,Chapra,509
4.720769,Kamyin,510
4.156667,Suihua,511
4.796452,Yangor,512
3.399091,Zaoyang,513
4.525714,Coquimbo,514
3.797692,Battambang,515
4.230000,Chungho,516
4.297692,Sivas,517
4.511739,Isesaki,518
4.208750,"Nha Trang",519
3.511739,Yingkou,520
5.080909,"Santa Rosa",521
4.262727,Vinh,522
4.621579,Purwakarta,523
3.937368,Udine,524
4.923333,"Cape Coral",525
3.406667,Mogiljov,526
4.470000,Benguela,527
4.093448,Bhimavaram,528
3.337826,Ezeiza,529
4.750000,Kuwana,530
4.771250,"Cam Ranh",531
4.293030,Binzhou,532
3.698333,Amroha,533
4.240000,NDjamna,534
4.710000,Tonghae,535
4.058966,Baicheng,536
4.126364,Valencia,537
4.698333,Ruse,538
4.531667,Livorno,539
5.267778,"Pangkal Pinang",540
3.762727,Beni-Mellal,541
4.490000,"So Bernardo do Campo",542
4.275714,Konotop,543
4.143846,Sanya,544
4.337826,Kanazawa,545
4.200526,Tarlac,546
3.890000,"Santiago de Compostela",547
4.990000,Zhoushan,548
3.720769,Alvorada,549
4.323333,Haining,550
4.490000,"Novi Sad",551
4.626364,Rajkot,552
4.401765,Chatsworth,553
3.990000,Southport,554
3.073333,Vilnius,555
4.847143,Wroclaw,556
3.954286,Bilbays,557
4.423333,Avellaneda,558
3.582593,Garland,559
4.390000,Sokoto,560
3.817586,Bucuresti,561
3.823333,Xintai,562
4.369310,Hunuco,563
4.166471,Tokat,564
4.290000,Serpuhov,565
3.180476,Barcelona,566
4.208750,Leshan,567
3.836154,Monclova,568
5.073333,Plock,569
4.350000,Czestochowa,570
4.162414,Zhezqazghan,571
3.918571,Akishima,572
4.369310,Cuernavaca,573
4.107647,Fengshan,574
4.240000,Tanshui,575
4.399091,Carmen,576
4.138148,Mosul,577
3.693704,Iligan,578
3.990000,"Jos Azueta",579
4.550000,"Huejutla de Reyes",580
5.120435,Southampton,581
4.323333,Banjul,582
4.906667,Quilmes,583
3.411053,Tsaotun,584
4.182308,Celaya,585
3.990000,Weifang,586
4.632857,Loja,587
4.510000,al-Manama,588
4.990000,"Juiz de Fora",589
3.852069,Szkesfehrvr,590
4.374615,"Garden Grove",591
4.841852,Jining,592
3.923333,Jinzhou,593
3.454286,Patras,594
3.990000,Sullana,595
3.808182,Lausanne,596
4.411053,Tieli,597
