Name,"Rental Amount"
"YANEZ, LUIS",79.80
"HUDSON, LAUREN",71.80
"GRAHAM, RITA",92.76
"GREEN, VIRGINIA",129.68
"ELLIS, GRACE",139.67
"BETANCOURT, MIGUEL",135.71
"BREWER, VICKIE",120.69
"AUSTIN, ALMA",151.65
"BURTON, COLLEEN",87.76
"SIMS, VANESSA",86.81
"FIELDS, VICKI",108.75
"HILL, ANNA",91.79
"FENNELL, ALEXANDER",151.64
"GRECO, CHRISTOPHER",147.69
"OUTLAW, MARC",123.70
"WINDHAM, DARREN",108.76
"MORRISON, BESSIE",132.72
"CLARY, ADRIAN",74.81
