"Amount Rental",Country
68.78,Bolivia
696.36,Turkey
366.13,Iran
746.34,Indonesia
2732.50,India
161.59,Israel
1401.59,Mexico
609.52,Argentina
1261.93,Brazil
370.17,Italy
1283.92,"Russian Federation"
41.89,Tonga
199.48,Peru
335.18,"United Kingdom"
75.80,Paraguay
37.86,"Virgin Islands, U.S."
33.91,"New Zealand"
1656.15,Japan
106.76,Chile
1713.96,"United States"
2502.78,China
441.83,Taiwan
107.75,Sudan
157.66,Belarus
250.50,Yemen
41.89,"American Samoa"
75.82,Moldova
500.88,"South Africa"
1087.46,Philippines
298.36,Colombia
29.93,Madagascar
308.39,Netherlands
119.70,"Congo, The Democratic Republic of the"
367.17,Egypt
241.48,Canada
51.83,Kazakstan
267.44,"Saudi Arabia"
223.43,Pakistan
47.86,Hungary
281.35,Spain
146.62,"United Arab Emirates"
55.87,Liechtenstein
370.17,Vietnam
51.87,Zambia
37.88,Brunei
22.94,Ethiopia
52.86,"Holy See (Vatican City State)"
94.77,Myanmar
35.89,"North Korea"
55.87,Turkmenistan
259.43,"South Korea"
345.20,Poland
187.59,Bangladesh
716.33,Nigeria
37.92,"Hong Kong"
49.90,Kuwait
77.79,Cambodia
54.85,Oman
121.73,Latvia
104.80,Runion
149.64,Malaysia
121.72,Switzerland
54.89,Gambia
47.90,Nauru
250.43,Ukraine
175.56,Algeria
127.73,Mozambique
245.40,Venezuela
138.64,Austria
162.65,Ecuador
31.90,Senegal
120.72,Yugoslavia
47.90,Bahrain
286.33,Germany
139.64,"Dominican Republic"
188.55,France
66.81,Greece
78.79,Romania
57.87,Chad
46.84,Anguilla
167.61,Thailand
20.92,Estonia
60.88,Iraq
27.92,"Sri Lanka"
36.91,"Faroe Islands"
53.88,Malawi
22.94,Tunisia
24.90,"Saint Vincent and the Grenadines"
113.72,Angola
91.80,Bulgaria
127.71,Tanzania
101.76,"French Polynesia"
22.95,Afghanistan
41.90,Tuvalu
114.77,Kenya
79.81,Sweden
38.88,Lithuania
39.90,Greenland
86.73,Cameroon
92.78,Azerbaijan
30.90,Slovakia
79.83,Armenia
43.92,"Czech Republic"
102.75,Morocco
54.88,Nepal
100.79,"Puerto Rico"
32.94,"French Guiana"
58.87,Finland
