"Total Customers",city
32,Sasebo
27,"San Bernardino"
26,Athenai
22,Myingyan
38,Nantou
28,Laredo
33,Kragujevac
24,Hamilton
23,Masqat
25,Esfahan
24,Sagamihara
28,"Yamuna Nagar"
27,Osmaniye
28,"Citrus Heights"
32,Bhopal
28,Southend-on-Sea
21,Elista
22,Kaduna
24,Kimberley
30,Mardan
